Campaign Code,Promo Code,Promo Description,Effective Date,End Date,Product Code,Term,Professional Category,Currency,Price,Domestic,Require Auto Renew,Customize Online Experience
DNJD1929,DN9JPC99,PHY DM 52/$69AR or $89,2019-09-02,2020-10-31,NEJ,52,PHY,USD,69,Y,Y,Y
DNJD1929,DN9JP100,PHY DM 52/$69AR or $89,2019-09-02,2020-10-31,NEJ,52,PHY,USD,69,Y,Y,Y
