Campaign Code,Promo Code,Promo Description,Effective Date,End Date,Product Code,Term,Professional Category,Currency,Price,Domestic,Require Auto Renew,Customize Online Experience
DNJD1909,DN9JPCQW,PHY DM 52/$69AR or $89,2019-09-02,2020-10-31,NEJ,52,PHY,USD,69,Y,Y,N
DNJD1909,DN9JPCSA,PHY DM 52/$69AR or $89,2019-09-02,2020-10-31,NEJ,52,PHY,USD,69,Y,Y,N
